<svg width="410" height="410" viewBox="0 0 410 410" fill="none" xmlns="http://www.w3.org/2000/svg">
<g clip-path="url(#clip0_114_75)">
<rect width="410" height="410" fill="white"/>
<g filter="url(#filter0_d_114_75)">
<rect x="180" y="180" width="50" height="50" fill="white"/>
<rect x="180.5" y="180.5" width="49" height="49" stroke="#D8D6D8"/>
</g>
<g filter="url(#filter1_d_114_75)">
<rect x="180" y="120" width="50" height="50" fill="white"/>
<rect x="180.5" y="120.5" width="49" height="49" stroke="#D8D6D8"/>
</g>
<g filter="url(#filter2_d_114_75)">
<rect x="180" y="240" width="50" height="50" fill="white"/>
<rect x="180.5" y="240.5" width="49" height="49" stroke="#D8D6D8"/>
</g>
<g filter="url(#filter3_d_114_75)">
<rect x="240" y="180" width="50" height="50" fill="white"/>
<rect x="240.5" y="180.5" width="49" height="49" stroke="#D8D6D8"/>
</g>
<g filter="url(#filter4_d_114_75)">
<rect x="180" y="60" width="50" height="50" fill="#0C4077"/>
</g>
<g filter="url(#filter5_d_114_75)">
<rect x="240" y="60" width="50" height="50" fill="#C7363D"/>
</g>
<g filter="url(#filter6_d_114_75)">
<rect x="180" width="50" height="50" fill="#C7363D"/>
</g>
<g filter="url(#filter7_d_114_75)">
<rect x="120" y="60" width="50" height="50" fill="#C7363D"/>
</g>
<g filter="url(#filter8_d_114_75)">
<rect x="60" y="120" width="50" height="50" fill="#C7363D"/>
</g>
<g filter="url(#filter9_d_114_75)">
<rect x="300" y="120" width="50" height="50" fill="#C7363D"/>
</g>
<g filter="url(#filter10_d_114_75)">
<rect x="300" y="240" width="50" height="50" fill="#C7363D"/>
</g>
<g filter="url(#filter11_d_114_75)">
<rect x="240" y="300" width="50" height="50" fill="#C7363D"/>
</g>
<g filter="url(#filter12_d_114_75)">
<rect x="180" y="360" width="50" height="50" fill="#C7363D"/>
</g>
<g filter="url(#filter13_d_114_75)">
<rect x="360" y="180" width="50" height="50" fill="#C7363D"/>
</g>
<g filter="url(#filter14_d_114_75)">
<rect x="120" y="300" width="50" height="50" fill="#C7363D"/>
</g>
<g filter="url(#filter15_d_114_75)">
<rect x="60" y="240" width="50" height="50" fill="#C7363D"/>
</g>
<g filter="url(#filter16_d_114_75)">
<rect y="180" width="50" height="50" fill="#C7363D"/>
</g>
<g filter="url(#filter17_d_114_75)">
<rect x="240" y="120" width="50" height="50" fill="#0C4077"/>
</g>
<g filter="url(#filter18_d_114_75)">
<rect x="120" y="120" width="50" height="50" fill="#0C4077"/>
</g>
<g filter="url(#filter19_d_114_75)">
<rect x="60" y="180" width="50" height="50" fill="#0C4077"/>
</g>
<g filter="url(#filter20_d_114_75)">
<rect x="300" y="180" width="50" height="50" fill="#0C4077"/>
</g>
<g filter="url(#filter21_d_114_75)">
<rect x="240" y="240" width="50" height="50" fill="#0C4077"/>
</g>
<g filter="url(#filter22_d_114_75)">
<rect x="120" y="240" width="50" height="50" fill="#0C4077"/>
</g>
<g filter="url(#filter23_d_114_75)">
<rect x="180" y="300" width="50" height="50" fill="#0C4077"/>
</g>
<g filter="url(#filter24_d_114_75)">
<rect x="120" y="180" width="50" height="50" fill="white"/>
<rect x="120.5" y="180.5" width="49" height="49" stroke="#D8D6D8"/>
</g>
</g>
<defs>
<filter id="filter0_d_114_75" x="176" y="180" width="58" height="58" filterUnits="userSpaceOnUse" color-interpolation-filters="sRGB">
<feFlood flood-opacity="0" result="BackgroundImageFix"/>
<feColorMatrix in="SourceAlpha" type="matrix" values="0 0 0 0 0 0 0 0 0 0 0 0 0 0 0 0 0 0 127 0" result="hardAlpha"/>
<feOffset dy="4"/>
<feGaussianBlur stdDeviation="2"/>
<feComposite in2="hardAlpha" operator="out"/>
<feColorMatrix type="matrix" values="0 0 0 0 0 0 0 0 0 0 0 0 0 0 0 0 0 0 0.25 0"/>
<feBlend mode="normal" in2="BackgroundImageFix" result="effect1_dropShadow_114_75"/>
<feBlend mode="normal" in="SourceGraphic" in2="effect1_dropShadow_114_75" result="shape"/>
</filter>
<filter id="filter1_d_114_75" x="176" y="120" width="58" height="58" filterUnits="userSpaceOnUse" color-interpolation-filters="sRGB">
<feFlood flood-opacity="0" result="BackgroundImageFix"/>
<feColorMatrix in="SourceAlpha" type="matrix" values="0 0 0 0 0 0 0 0 0 0 0 0 0 0 0 0 0 0 127 0" result="hardAlpha"/>
<feOffset dy="4"/>
<feGaussianBlur stdDeviation="2"/>
<feComposite in2="hardAlpha" operator="out"/>
<feColorMatrix type="matrix" values="0 0 0 0 0 0 0 0 0 0 0 0 0 0 0 0 0 0 0.25 0"/>
<feBlend mode="normal" in2="BackgroundImageFix" result="effect1_dropShadow_114_75"/>
<feBlend mode="normal" in="SourceGraphic" in2="effect1_dropShadow_114_75" result="shape"/>
</filter>
<filter id="filter2_d_114_75" x="176" y="240" width="58" height="58" filterUnits="userSpaceOnUse" color-interpolation-filters="sRGB">
<feFlood flood-opacity="0" result="BackgroundImageFix"/>
<feColorMatrix in="SourceAlpha" type="matrix" values="0 0 0 0 0 0 0 0 0 0 0 0 0 0 0 0 0 0 127 0" result="hardAlpha"/>
<feOffset dy="4"/>
<feGaussianBlur stdDeviation="2"/>
<feComposite in2="hardAlpha" operator="out"/>
<feColorMatrix type="matrix" values="0 0 0 0 0 0 0 0 0 0 0 0 0 0 0 0 0 0 0.25 0"/>
<feBlend mode="normal" in2="BackgroundImageFix" result="effect1_dropShadow_114_75"/>
<feBlend mode="normal" in="SourceGraphic" in2="effect1_dropShadow_114_75" result="shape"/>
</filter>
<filter id="filter3_d_114_75" x="236" y="180" width="58" height="58" filterUnits="userSpaceOnUse" color-interpolation-filters="sRGB">
<feFlood flood-opacity="0" result="BackgroundImageFix"/>
<feColorMatrix in="SourceAlpha" type="matrix" values="0 0 0 0 0 0 0 0 0 0 0 0 0 0 0 0 0 0 127 0" result="hardAlpha"/>
<feOffset dy="4"/>
<feGaussianBlur stdDeviation="2"/>
<feComposite in2="hardAlpha" operator="out"/>
<feColorMatrix type="matrix" values="0 0 0 0 0 0 0 0 0 0 0 0 0 0 0 0 0 0 0.25 0"/>
<feBlend mode="normal" in2="BackgroundImageFix" result="effect1_dropShadow_114_75"/>
<feBlend mode="normal" in="SourceGraphic" in2="effect1_dropShadow_114_75" result="shape"/>
</filter>
<filter id="filter4_d_114_75" x="176" y="60" width="58" height="58" filterUnits="userSpaceOnUse" color-interpolation-filters="sRGB">
<feFlood flood-opacity="0" result="BackgroundImageFix"/>
<feColorMatrix in="SourceAlpha" type="matrix" values="0 0 0 0 0 0 0 0 0 0 0 0 0 0 0 0 0 0 127 0" result="hardAlpha"/>
<feOffset dy="4"/>
<feGaussianBlur stdDeviation="2"/>
<feComposite in2="hardAlpha" operator="out"/>
<feColorMatrix type="matrix" values="0 0 0 0 0 0 0 0 0 0 0 0 0 0 0 0 0 0 0.25 0"/>
<feBlend mode="normal" in2="BackgroundImageFix" result="effect1_dropShadow_114_75"/>
<feBlend mode="normal" in="SourceGraphic" in2="effect1_dropShadow_114_75" result="shape"/>
</filter>
<filter id="filter5_d_114_75" x="236" y="60" width="58" height="58" filterUnits="userSpaceOnUse" color-interpolation-filters="sRGB">
<feFlood flood-opacity="0" result="BackgroundImageFix"/>
<feColorMatrix in="SourceAlpha" type="matrix" values="0 0 0 0 0 0 0 0 0 0 0 0 0 0 0 0 0 0 127 0" result="hardAlpha"/>
<feOffset dy="4"/>
<feGaussianBlur stdDeviation="2"/>
<feComposite in2="hardAlpha" operator="out"/>
<feColorMatrix type="matrix" values="0 0 0 0 0 0 0 0 0 0 0 0 0 0 0 0 0 0 0.25 0"/>
<feBlend mode="normal" in2="BackgroundImageFix" result="effect1_dropShadow_114_75"/>
<feBlend mode="normal" in="SourceGraphic" in2="effect1_dropShadow_114_75" result="shape"/>
</filter>
<filter id="filter6_d_114_75" x="176" y="0" width="58" height="58" filterUnits="userSpaceOnUse" color-interpolation-filters="sRGB">
<feFlood flood-opacity="0" result="BackgroundImageFix"/>
<feColorMatrix in="SourceAlpha" type="matrix" values="0 0 0 0 0 0 0 0 0 0 0 0 0 0 0 0 0 0 127 0" result="hardAlpha"/>
<feOffset dy="4"/>
<feGaussianBlur stdDeviation="2"/>
<feComposite in2="hardAlpha" operator="out"/>
<feColorMatrix type="matrix" values="0 0 0 0 0 0 0 0 0 0 0 0 0 0 0 0 0 0 0.25 0"/>
<feBlend mode="normal" in2="BackgroundImageFix" result="effect1_dropShadow_114_75"/>
<feBlend mode="normal" in="SourceGraphic" in2="effect1_dropShadow_114_75" result="shape"/>
</filter>
<filter id="filter7_d_114_75" x="116" y="60" width="58" height="58" filterUnits="userSpaceOnUse" color-interpolation-filters="sRGB">
<feFlood flood-opacity="0" result="BackgroundImageFix"/>
<feColorMatrix in="SourceAlpha" type="matrix" values="0 0 0 0 0 0 0 0 0 0 0 0 0 0 0 0 0 0 127 0" result="hardAlpha"/>
<feOffset dy="4"/>
<feGaussianBlur stdDeviation="2"/>
<feComposite in2="hardAlpha" operator="out"/>
<feColorMatrix type="matrix" values="0 0 0 0 0 0 0 0 0 0 0 0 0 0 0 0 0 0 0.25 0"/>
<feBlend mode="normal" in2="BackgroundImageFix" result="effect1_dropShadow_114_75"/>
<feBlend mode="normal" in="SourceGraphic" in2="effect1_dropShadow_114_75" result="shape"/>
</filter>
<filter id="filter8_d_114_75" x="56" y="120" width="58" height="58" filterUnits="userSpaceOnUse" color-interpolation-filters="sRGB">
<feFlood flood-opacity="0" result="BackgroundImageFix"/>
<feColorMatrix in="SourceAlpha" type="matrix" values="0 0 0 0 0 0 0 0 0 0 0 0 0 0 0 0 0 0 127 0" result="hardAlpha"/>
<feOffset dy="4"/>
<feGaussianBlur stdDeviation="2"/>
<feComposite in2="hardAlpha" operator="out"/>
<feColorMatrix type="matrix" values="0 0 0 0 0 0 0 0 0 0 0 0 0 0 0 0 0 0 0.25 0"/>
<feBlend mode="normal" in2="BackgroundImageFix" result="effect1_dropShadow_114_75"/>
<feBlend mode="normal" in="SourceGraphic" in2="effect1_dropShadow_114_75" result="shape"/>
</filter>
<filter id="filter9_d_114_75" x="296" y="120" width="58" height="58" filterUnits="userSpaceOnUse" color-interpolation-filters="sRGB">
<feFlood flood-opacity="0" result="BackgroundImageFix"/>
<feColorMatrix in="SourceAlpha" type="matrix" values="0 0 0 0 0 0 0 0 0 0 0 0 0 0 0 0 0 0 127 0" result="hardAlpha"/>
<feOffset dy="4"/>
<feGaussianBlur stdDeviation="2"/>
<feComposite in2="hardAlpha" operator="out"/>
<feColorMatrix type="matrix" values="0 0 0 0 0 0 0 0 0 0 0 0 0 0 0 0 0 0 0.25 0"/>
<feBlend mode="normal" in2="BackgroundImageFix" result="effect1_dropShadow_114_75"/>
<feBlend mode="normal" in="SourceGraphic" in2="effect1_dropShadow_114_75" result="shape"/>
</filter>
<filter id="filter10_d_114_75" x="296" y="240" width="58" height="58" filterUnits="userSpaceOnUse" color-interpolation-filters="sRGB">
<feFlood flood-opacity="0" result="BackgroundImageFix"/>
<feColorMatrix in="SourceAlpha" type="matrix" values="0 0 0 0 0 0 0 0 0 0 0 0 0 0 0 0 0 0 127 0" result="hardAlpha"/>
<feOffset dy="4"/>
<feGaussianBlur stdDeviation="2"/>
<feComposite in2="hardAlpha" operator="out"/>
<feColorMatrix type="matrix" values="0 0 0 0 0 0 0 0 0 0 0 0 0 0 0 0 0 0 0.25 0"/>
<feBlend mode="normal" in2="BackgroundImageFix" result="effect1_dropShadow_114_75"/>
<feBlend mode="normal" in="SourceGraphic" in2="effect1_dropShadow_114_75" result="shape"/>
</filter>
<filter id="filter11_d_114_75" x="236" y="300" width="58" height="58" filterUnits="userSpaceOnUse" color-interpolation-filters="sRGB">
<feFlood flood-opacity="0" result="BackgroundImageFix"/>
<feColorMatrix in="SourceAlpha" type="matrix" values="0 0 0 0 0 0 0 0 0 0 0 0 0 0 0 0 0 0 127 0" result="hardAlpha"/>
<feOffset dy="4"/>
<feGaussianBlur stdDeviation="2"/>
<feComposite in2="hardAlpha" operator="out"/>
<feColorMatrix type="matrix" values="0 0 0 0 0 0 0 0 0 0 0 0 0 0 0 0 0 0 0.25 0"/>
<feBlend mode="normal" in2="BackgroundImageFix" result="effect1_dropShadow_114_75"/>
<feBlend mode="normal" in="SourceGraphic" in2="effect1_dropShadow_114_75" result="shape"/>
</filter>
<filter id="filter12_d_114_75" x="176" y="360" width="58" height="58" filterUnits="userSpaceOnUse" color-interpolation-filters="sRGB">
<feFlood flood-opacity="0" result="BackgroundImageFix"/>
<feColorMatrix in="SourceAlpha" type="matrix" values="0 0 0 0 0 0 0 0 0 0 0 0 0 0 0 0 0 0 127 0" result="hardAlpha"/>
<feOffset dy="4"/>
<feGaussianBlur stdDeviation="2"/>
<feComposite in2="hardAlpha" operator="out"/>
<feColorMatrix type="matrix" values="0 0 0 0 0 0 0 0 0 0 0 0 0 0 0 0 0 0 0.25 0"/>
<feBlend mode="normal" in2="BackgroundImageFix" result="effect1_dropShadow_114_75"/>
<feBlend mode="normal" in="SourceGraphic" in2="effect1_dropShadow_114_75" result="shape"/>
</filter>
<filter id="filter13_d_114_75" x="356" y="180" width="58" height="58" filterUnits="userSpaceOnUse" color-interpolation-filters="sRGB">
<feFlood flood-opacity="0" result="BackgroundImageFix"/>
<feColorMatrix in="SourceAlpha" type="matrix" values="0 0 0 0 0 0 0 0 0 0 0 0 0 0 0 0 0 0 127 0" result="hardAlpha"/>
<feOffset dy="4"/>
<feGaussianBlur stdDeviation="2"/>
<feComposite in2="hardAlpha" operator="out"/>
<feColorMatrix type="matrix" values="0 0 0 0 0 0 0 0 0 0 0 0 0 0 0 0 0 0 0.25 0"/>
<feBlend mode="normal" in2="BackgroundImageFix" result="effect1_dropShadow_114_75"/>
<feBlend mode="normal" in="SourceGraphic" in2="effect1_dropShadow_114_75" result="shape"/>
</filter>
<filter id="filter14_d_114_75" x="116" y="300" width="58" height="58" filterUnits="userSpaceOnUse" color-interpolation-filters="sRGB">
<feFlood flood-opacity="0" result="BackgroundImageFix"/>
<feColorMatrix in="SourceAlpha" type="matrix" values="0 0 0 0 0 0 0 0 0 0 0 0 0 0 0 0 0 0 127 0" result="hardAlpha"/>
<feOffset dy="4"/>
<feGaussianBlur stdDeviation="2"/>
<feComposite in2="hardAlpha" operator="out"/>
<feColorMatrix type="matrix" values="0 0 0 0 0 0 0 0 0 0 0 0 0 0 0 0 0 0 0.25 0"/>
<feBlend mode="normal" in2="BackgroundImageFix" result="effect1_dropShadow_114_75"/>
<feBlend mode="normal" in="SourceGraphic" in2="effect1_dropShadow_114_75" result="shape"/>
</filter>
<filter id="filter15_d_114_75" x="56" y="240" width="58" height="58" filterUnits="userSpaceOnUse" color-interpolation-filters="sRGB">
<feFlood flood-opacity="0" result="BackgroundImageFix"/>
<feColorMatrix in="SourceAlpha" type="matrix" values="0 0 0 0 0 0 0 0 0 0 0 0 0 0 0 0 0 0 127 0" result="hardAlpha"/>
<feOffset dy="4"/>
<feGaussianBlur stdDeviation="2"/>
<feComposite in2="hardAlpha" operator="out"/>
<feColorMatrix type="matrix" values="0 0 0 0 0 0 0 0 0 0 0 0 0 0 0 0 0 0 0.25 0"/>
<feBlend mode="normal" in2="BackgroundImageFix" result="effect1_dropShadow_114_75"/>
<feBlend mode="normal" in="SourceGraphic" in2="effect1_dropShadow_114_75" result="shape"/>
</filter>
<filter id="filter16_d_114_75" x="-4" y="180" width="58" height="58" filterUnits="userSpaceOnUse" color-interpolation-filters="sRGB">
<feFlood flood-opacity="0" result="BackgroundImageFix"/>
<feColorMatrix in="SourceAlpha" type="matrix" values="0 0 0 0 0 0 0 0 0 0 0 0 0 0 0 0 0 0 127 0" result="hardAlpha"/>
<feOffset dy="4"/>
<feGaussianBlur stdDeviation="2"/>
<feComposite in2="hardAlpha" operator="out"/>
<feColorMatrix type="matrix" values="0 0 0 0 0 0 0 0 0 0 0 0 0 0 0 0 0 0 0.25 0"/>
<feBlend mode="normal" in2="BackgroundImageFix" result="effect1_dropShadow_114_75"/>
<feBlend mode="normal" in="SourceGraphic" in2="effect1_dropShadow_114_75" result="shape"/>
</filter>
<filter id="filter17_d_114_75" x="236" y="120" width="58" height="58" filterUnits="userSpaceOnUse" color-interpolation-filters="sRGB">
<feFlood flood-opacity="0" result="BackgroundImageFix"/>
<feColorMatrix in="SourceAlpha" type="matrix" values="0 0 0 0 0 0 0 0 0 0 0 0 0 0 0 0 0 0 127 0" result="hardAlpha"/>
<feOffset dy="4"/>
<feGaussianBlur stdDeviation="2"/>
<feComposite in2="hardAlpha" operator="out"/>
<feColorMatrix type="matrix" values="0 0 0 0 0 0 0 0 0 0 0 0 0 0 0 0 0 0 0.25 0"/>
<feBlend mode="normal" in2="BackgroundImageFix" result="effect1_dropShadow_114_75"/>
<feBlend mode="normal" in="SourceGraphic" in2="effect1_dropShadow_114_75" result="shape"/>
</filter>
<filter id="filter18_d_114_75" x="116" y="120" width="58" height="58" filterUnits="userSpaceOnUse" color-interpolation-filters="sRGB">
<feFlood flood-opacity="0" result="BackgroundImageFix"/>
<feColorMatrix in="SourceAlpha" type="matrix" values="0 0 0 0 0 0 0 0 0 0 0 0 0 0 0 0 0 0 127 0" result="hardAlpha"/>
<feOffset dy="4"/>
<feGaussianBlur stdDeviation="2"/>
<feComposite in2="hardAlpha" operator="out"/>
<feColorMatrix type="matrix" values="0 0 0 0 0 0 0 0 0 0 0 0 0 0 0 0 0 0 0.25 0"/>
<feBlend mode="normal" in2="BackgroundImageFix" result="effect1_dropShadow_114_75"/>
<feBlend mode="normal" in="SourceGraphic" in2="effect1_dropShadow_114_75" result="shape"/>
</filter>
<filter id="filter19_d_114_75" x="56" y="180" width="58" height="58" filterUnits="userSpaceOnUse" color-interpolation-filters="sRGB">
<feFlood flood-opacity="0" result="BackgroundImageFix"/>
<feColorMatrix in="SourceAlpha" type="matrix" values="0 0 0 0 0 0 0 0 0 0 0 0 0 0 0 0 0 0 127 0" result="hardAlpha"/>
<feOffset dy="4"/>
<feGaussianBlur stdDeviation="2"/>
<feComposite in2="hardAlpha" operator="out"/>
<feColorMatrix type="matrix" values="0 0 0 0 0 0 0 0 0 0 0 0 0 0 0 0 0 0 0.25 0"/>
<feBlend mode="normal" in2="BackgroundImageFix" result="effect1_dropShadow_114_75"/>
<feBlend mode="normal" in="SourceGraphic" in2="effect1_dropShadow_114_75" result="shape"/>
</filter>
<filter id="filter20_d_114_75" x="296" y="180" width="58" height="58" filterUnits="userSpaceOnUse" color-interpolation-filters="sRGB">
<feFlood flood-opacity="0" result="BackgroundImageFix"/>
<feColorMatrix in="SourceAlpha" type="matrix" values="0 0 0 0 0 0 0 0 0 0 0 0 0 0 0 0 0 0 127 0" result="hardAlpha"/>
<feOffset dy="4"/>
<feGaussianBlur stdDeviation="2"/>
<feComposite in2="hardAlpha" operator="out"/>
<feColorMatrix type="matrix" values="0 0 0 0 0 0 0 0 0 0 0 0 0 0 0 0 0 0 0.25 0"/>
<feBlend mode="normal" in2="BackgroundImageFix" result="effect1_dropShadow_114_75"/>
<feBlend mode="normal" in="SourceGraphic" in2="effect1_dropShadow_114_75" result="shape"/>
</filter>
<filter id="filter21_d_114_75" x="236" y="240" width="58" height="58" filterUnits="userSpaceOnUse" color-interpolation-filters="sRGB">
<feFlood flood-opacity="0" result="BackgroundImageFix"/>
<feColorMatrix in="SourceAlpha" type="matrix" values="0 0 0 0 0 0 0 0 0 0 0 0 0 0 0 0 0 0 127 0" result="hardAlpha"/>
<feOffset dy="4"/>
<feGaussianBlur stdDeviation="2"/>
<feComposite in2="hardAlpha" operator="out"/>
<feColorMatrix type="matrix" values="0 0 0 0 0 0 0 0 0 0 0 0 0 0 0 0 0 0 0.25 0"/>
<feBlend mode="normal" in2="BackgroundImageFix" result="effect1_dropShadow_114_75"/>
<feBlend mode="normal" in="SourceGraphic" in2="effect1_dropShadow_114_75" result="shape"/>
</filter>
<filter id="filter22_d_114_75" x="116" y="240" width="58" height="58" filterUnits="userSpaceOnUse" color-interpolation-filters="sRGB">
<feFlood flood-opacity="0" result="BackgroundImageFix"/>
<feColorMatrix in="SourceAlpha" type="matrix" values="0 0 0 0 0 0 0 0 0 0 0 0 0 0 0 0 0 0 127 0" result="hardAlpha"/>
<feOffset dy="4"/>
<feGaussianBlur stdDeviation="2"/>
<feComposite in2="hardAlpha" operator="out"/>
<feColorMatrix type="matrix" values="0 0 0 0 0 0 0 0 0 0 0 0 0 0 0 0 0 0 0.25 0"/>
<feBlend mode="normal" in2="BackgroundImageFix" result="effect1_dropShadow_114_75"/>
<feBlend mode="normal" in="SourceGraphic" in2="effect1_dropShadow_114_75" result="shape"/>
</filter>
<filter id="filter23_d_114_75" x="176" y="300" width="58" height="58" filterUnits="userSpaceOnUse" color-interpolation-filters="sRGB">
<feFlood flood-opacity="0" result="BackgroundImageFix"/>
<feColorMatrix in="SourceAlpha" type="matrix" values="0 0 0 0 0 0 0 0 0 0 0 0 0 0 0 0 0 0 127 0" result="hardAlpha"/>
<feOffset dy="4"/>
<feGaussianBlur stdDeviation="2"/>
<feComposite in2="hardAlpha" operator="out"/>
<feColorMatrix type="matrix" values="0 0 0 0 0 0 0 0 0 0 0 0 0 0 0 0 0 0 0.25 0"/>
<feBlend mode="normal" in2="BackgroundImageFix" result="effect1_dropShadow_114_75"/>
<feBlend mode="normal" in="SourceGraphic" in2="effect1_dropShadow_114_75" result="shape"/>
</filter>
<filter id="filter24_d_114_75" x="116" y="180" width="58" height="58" filterUnits="userSpaceOnUse" color-interpolation-filters="sRGB">
<feFlood flood-opacity="0" result="BackgroundImageFix"/>
<feColorMatrix in="SourceAlpha" type="matrix" values="0 0 0 0 0 0 0 0 0 0 0 0 0 0 0 0 0 0 127 0" result="hardAlpha"/>
<feOffset dy="4"/>
<feGaussianBlur stdDeviation="2"/>
<feComposite in2="hardAlpha" operator="out"/>
<feColorMatrix type="matrix" values="0 0 0 0 0 0 0 0 0 0 0 0 0 0 0 0 0 0 0.25 0"/>
<feBlend mode="normal" in2="BackgroundImageFix" result="effect1_dropShadow_114_75"/>
<feBlend mode="normal" in="SourceGraphic" in2="effect1_dropShadow_114_75" result="shape"/>
</filter>
<clipPath id="clip0_114_75">
<rect width="410" height="410" fill="white"/>
</clipPath>
</defs>
</svg>
